<svg id="Group_464" data-name="Group 464" xmlns="http://www.w3.org/2000/svg" width="72.38" height="17.599" viewBox="0 0 72.38 17.599">
  <path id="Path_689" data-name="Path 689" d="M0,16.722A8.007,8.007,0,0,1,8.309,8.48a30.908,30.908,0,0,1,3.916.5,1.29,1.29,0,0,0,.933-.341l1.161,6.079-.091.045a7.241,7.241,0,0,0-5.69-3.074,4.817,4.817,0,0,0-4.986,5.032,4.848,4.848,0,0,0,4.986,5.009c2.778,0,4.917-1.958,5.851-4.8l.113.023c.523,4.19-1.8,8.036-6.579,8.036C3.119,24.987,0,21.412,0,16.722Z" transform="translate(0 -7.388)" fill="red"/>
  <path id="Path_690" data-name="Path 690" d="M134.072,17.258V17.3h-5.464v-.045a1.765,1.765,0,0,0,1.047-1.8V10.472a1.868,1.868,0,0,0-2.072-1.89,2.8,2.8,0,0,0-2.3,1.3v5.58a1.749,1.749,0,0,0,1.071,1.8V17.3H120.89v-.045a1.763,1.763,0,0,0,1.047-1.8V3.187a1.732,1.732,0,0,0-1.047-1.775V1.366A16.357,16.357,0,0,0,125.284,0V6.83a4.17,4.17,0,0,1,3.051-1.207A4.323,4.323,0,0,1,133,10.086v5.373A1.75,1.75,0,0,0,134.072,17.258Z" transform="translate(-105.316)" fill="red"/>
  <path id="Path_691" data-name="Path 691" d="M228.87,49.638a6.2,6.2,0,1,1,6.216,5.988A5.848,5.848,0,0,1,228.87,49.638Zm9.062,0a2.868,2.868,0,1,0-5.715,0,2.868,2.868,0,1,0,5.715,0Z" transform="translate(-199.385 -38.027)" fill="red"/>
  <path id="Path_692" data-name="Path 692" d="M334.02,49.683a5.934,5.934,0,0,1,6.261-6.033,25.158,25.158,0,0,1,2.528.3.861.861,0,0,0,.729-.3l.593,4.8-.068.023a4.115,4.115,0,0,0-3.484-1.89,3.1,3.1,0,1,0-.068,6.193,4.511,4.511,0,0,0,3.78-2.436l.091.045a8.271,8.271,0,0,1-.068,1.32,4.449,4.449,0,0,1-4.576,3.916A5.772,5.772,0,0,1,334.02,49.683Z" transform="translate(-290.989 -38.027)" fill="red"/>
  <path id="Path_693" data-name="Path 693" d="M422.74,49.638a6.2,6.2,0,1,1,6.216,5.988A5.848,5.848,0,0,1,422.74,49.638Zm9.062,0a2.868,2.868,0,1,0-5.715,0,2.868,2.868,0,1,0,5.715,0Z" transform="translate(-368.279 -38.027)" fill="red"/>
  <path id="Path_694" data-name="Path 694" d="M529.49,106.208a2.083,2.083,0,1,1,4.166,0,2.083,2.083,0,0,1-4.166,0Z" transform="translate(-461.277 -90.68)" fill="red"/>
</svg>
